3 Linear Models 1: The Mean – EEB 830/831
…
ggplotly(prop_hybrid_plot)

3.6 Generating residuals.

You can look at residuals and model predictions using the augment() function in the broom package. The code below uses augment() to make a table where each row has a penguin’s body mass, the expectation of body mass from the fitted model, and the residual.

#install.packages('broom')  ##uncomment this code to install the broom package
library(broom)

augment(model1) |> select(body_mass, .fitted, .resid)

# A tibble: 342 × 3
   body_mass .fitted .resid
       <int>   <dbl>  <dbl>
 1      3750   4202. -452. 
 2      3800   4202. -402. 
 3      3250   4202. -952. 
 4      3450   4202. -752. 
 5      3650   4202. -552. 
 6      3625   4202. -577. 
 7      4675   4202.  473. 
 8      3475   4202. -727. 
 9      4250   4202.   48.2
10      3300   4202. -902. 
# ℹ 332 more rows
…
